<svg width="16" height="16" viewBox="0 0 16 16" fill="none" xmlns="http://www.w3.org/2000/svg">
<g clip-path="url(#clip0)">
<path d="M12.8 16C11.3832 16 9.87601 15.5984 8.32001 14.8064C6.88561 14.076 5.46881 13.0304 4.22241 11.7824C2.97601 10.5344 1.93201 9.116 1.20241 7.6808C0.412007 6.124 0.0104065 4.6168 0.0104065 3.2C0.0104065 2.2816 0.866407 1.3944 1.23361 1.056C1.76241 0.5688 2.59441 0 3.19921 0C3.50001 0 3.85201 0.1968 4.30881 0.6192C4.64881 0.9344 5.03201 1.3616 5.41521 1.8544C5.64641 2.152 6.79921 3.6712 6.79921 4.4C6.79921 4.9976 6.12321 5.4136 5.40801 5.8528C5.13121 6.0224 4.84561 6.1984 4.63921 6.364C4.41841 6.5408 4.37921 6.6344 4.37281 6.6552C5.13201 8.548 7.45281 10.8688 9.34481 11.6272C9.36161 11.6216 9.45521 11.5848 9.63521 11.3608C9.80081 11.1544 9.97681 10.868 10.1464 10.592C10.5864 9.8768 11.0016 9.2008 11.5992 9.2008C12.328 9.2008 13.8472 10.3536 14.1448 10.5848C14.6376 10.968 15.0648 11.3512 15.38 11.6912C15.8024 12.1472 15.9992 12.5 15.9992 12.8008C15.9992 13.4056 15.4304 14.24 14.944 14.7712C14.6048 15.1408 13.7176 16.0008 12.7992 16.0008L12.8 16ZM3.19521 0.8C2.98081 0.804 2.40401 1.0664 1.77681 1.644C1.18161 2.1928 0.811207 2.7888 0.811207 3.2C0.811207 8.5832 7.42241 15.2 12.8 15.2C13.2104 15.2 13.8064 14.828 14.3552 14.2296C14.9336 13.5992 15.196 13.02 15.2 12.8048C15.1744 12.6528 14.7536 12.0616 13.6024 11.1752C12.6128 10.4136 11.8104 10.0048 11.604 10C11.5896 10.004 11.5 10.0384 11.3184 10.2688C11.1608 10.4696 10.992 10.744 10.828 11.0096C10.38 11.7384 9.95681 12.4272 9.34161 12.4272C9.24241 12.4272 9.14481 12.408 9.05121 12.3704C6.95121 11.5304 4.46801 9.0472 3.62801 6.9472C3.52721 6.6952 3.51121 6.3 4.00721 5.8504C4.27121 5.6112 4.63601 5.3872 4.98961 5.1696C5.25521 5.0064 5.53041 4.8376 5.73041 4.6792C5.96081 4.4976 5.99521 4.408 5.99921 4.3936C5.99361 4.1872 5.58561 3.3848 4.82401 2.3952C3.93761 1.244 3.34641 0.824 3.19441 0.7976L3.19521 0.8Z" fill="white"/>
</g>
<defs>
<clipPath id="clip0">
<rect width="16" height="16" fill="white"/>
</clipPath>
</defs>
</svg>
